{
  "status": "success",
  "data": {
    "cmd": "enter_otp",
    "payload": {
      "maxAttempts": 3,
      "requestsCount": 1,
      "resendInterval": 60
    },
    "applicationId": "applicationId"
  }
}